int;float;float_french;float_us;time;date_iso;date_french;date_us;datetime_iso;datetime_hourmin;datetime_french_hourmin;datetime_french;string
56;3.4;4,5;5,000,134.12;09:23:54;2016-06-23;29/12/2016;12/29/2016;2016-06-23 12:23:39;2016-12-30 23:18;30/12/2016 22:39;27/10/2016 14:15:35;Abfji3
;5.4;5,5;1,000.3;12:43:00;2016-06-22;29/12/2017;12/29/2017;2016-06-23 12:23:40;2016-12-30 23:19;30/12/2016 22:40;27/10/2016 14:15:36;Bfjkl33
32;;5.3;1,400;12:43:00;2016-06-21;29/12/2018;12/29/2018;2016-06-23 12:23:41;2016-12-30 23:20;30/12/2016 22:41;27/10/2016 14:15:37;23
34;;1;2.1;;2016-06-20;29/12/2019;12/29/2019;2016-06-23 12:23:42;2016-12-30 23:21;30/12/2016 22:42;27/10/2016 14:15:38;34A
12;;0;0;;2016-06-19;29/12/2020;12/29/2020;2016-06-23 12:23:43;2016-12-30 23:22;30/12/2016 22:43;27/10/2016 14:15:39;AA
56;3.4;4,5;5,000,134.12;09:23:54;2016-06-23;29/12/2016;12/29/2016;2016-06-23 12:23:39;2016-12-30 23:18;30/12/2016 22:39;27/10/2016 14:15:35;Abfji3
;5.4;5,5;1,000.3;12:43:00;2016-06-22;29/12/2017;12/29/2017;2016-06-23 12:23:40;2016-12-30 23:19;30/12/2016 22:40;27/10/2016 14:15:36;Bfjkl33
32;2.3;5.3;1,400;12:43:00;2016-06-21;29/12/2018;12/29/2018;2016-06-23 12:23:41;2016-12-30 23:20;30/12/2016 22:41;27/10/2016 14:15:37;23
34;;1;2.1;;2016-06-20;29/12/2019;12/29/2019;2016-06-23 12:23:42;2016-12-30 23:21;30/12/2016 22:42;27/10/2016 14:15:38;34A
12;12;0;0;;2016-06-19;29/12/2020;12/29/2020;2016-06-23 12:23:43;2016-12-30 23:22;30/12/2016 22:43;27/10/2016 14:15:39;AA
56;3.4;4,5;5,000,134.12;09:23:54;2016-06-23;29/12/2016;12/29/2016;2016-06-23 12:23:39;2016-12-30 23:18;30/12/2016 22:39;27/10/2016 14:15:35;Abfji3
;5.4;5,5;1,000.3;12:43:00;2016-06-22;29/12/2017;12/29/2017;2016-06-23 12:23:40;2016-12-30 23:19;30/12/2016 22:40;27/10/2016 14:15:36;Bfjkl33
32;2.3;5.3;1,400;12:43:00;2016-06-21;29/12/2018;12/29/2018;2016-06-23 12:23:41;2016-12-30 23:20;30/12/2016 22:41;27/10/2016 14:15:37;23
34;;1;2.1;;2016-06-20;29/12/2019;12/29/2019;2016-06-23 12:23:42;2016-12-30 23:21;30/12/2016 22:42;27/10/2016 14:15:38;34A
12;12;0;0;;2016-06-19;29/12/2020;12/29/2020;2016-06-23 12:23:43;2016-12-30 23:22;30/12/2016 22:43;27/10/2016 14:15:39;AA
